{
	"info": {
		"_postman_id": "9cec8867-3620-4872-86b7-2517c1a8d4fb",
		"name": "MTGJson",
		"schema": "https://schema.getpostman.com/json/collection/v2.1.0/collection.json"
	},
	"item": [
		{
			"name": "Local_all cards",
			"request": {
				"method": "POST",
				"header": [
					{
						"key": "Accept",
						"value": "application/json",
						"type": "text"
					},
					{
						"key": "Content-Type",
						"value": "application/json",
						"type": "text"
					}
				],
				"body": {
					"mode": "raw",
					"raw": "{\n    \"commanders\": \n    [\n        \"Tymna the Weaver\",\n        \"Thrasios, Triton Hero\"\n    ],\n    \"cards\": \n    [\n        \"1 Abrupt Decay\",\n        \"1 Ad Nauseam\",\n        \"1 Ancient Tomb\",\n        \"1 Arbor Elf\",\n        \"1 Arcane Signet\",\n        \"1 Assassin's Trophy\",\n        \"1 Avacyn's Pilgrim\",\n        \"1 Bayou\",\n        \"1 Birds of Paradise\",\n        \"1 Bloodstained Mire\",\n        \"1 Bloom Tender\",\n        \"1 Brainstorm\",\n        \"1 Breeding Pool\",\n        \"1 Carpet of Flowers\",\n        \"1 Chain of Vapor\",\n        \"1 Chrome Mox\",\n        \"1 City of Brass\",\n        \"1 Command Tower\",\n        \"1 Copy Artifact\",\n        \"1 Counterspell\",\n        \"1 Cyclonic Rift\",\n        \"1 Dark Confidant\",\n        \"1 Dark Ritual\",\n        \"1 Deathrite Shaman\",\n        \"1 Delay\",\n        \"1 Demonic Consultation\",\n        \"1 Demonic Tutor\",\n        \"1 Dispel\",\n        \"1 Dovin's Veto\",\n        \"1 Dramatic Reversal\",\n        \"1 Drown in the Loch\",\n        \"1 Elves of Deep Shadow\",\n        \"1 Enlightened Tutor\",\n        \"1 Exotic Orchard\",\n        \"1 Fellwar Stone\",\n        \"1 Flooded Strand\",\n        \"1 Flusterstorm\",\n        \"1 Forbidden Orchard\",\n        \"1 Force of Will\",\n        \"1 Gemstone Caverns\",\n        \"1 Gilded Drake\",\n        \"1 Gitaxian Probe\",\n        \"1 Grim Monolith\",\n        \"1 Imperial Seal\",\n        \"1 Isochron Scepter\",\n        \"1 Jace, Wielder of Mysteries\",\n        \"1 Lim-Dûl's Vault\",\n        \"1 Mana Confluence\",\n        \"1 Mana Crypt\",\n        \"1 Mana Drain\",\n        \"1 Mana Vault\",\n        \"1 Marsh Flats\",\n        \"1 Mental Misstep\",\n        \"1 Misty Rainforest\",\n        \"1 Morphic Pool\",\n        \"1 Mox Diamond\",\n        \"1 Mystic Remora\",\n        \"1 Mystical Tutor\",\n        \"1 Necropotence\",\n        \"1 Negate\",\n        \"1 Noble Hierarch\",\n        \"1 Notion Thief\",\n        \"1 Noxious Revival\",\n        \"1 Nurturing Peatland\",\n        \"1 Pact of Negation\",\n        \"1 Plunge into Darkness\",\n        \"1 Polluted Delta\",\n        \"1 Ponder\",\n        \"1 Preordain\",\n        \"1 Priest of Titania\",\n        \"1 Rhystic Study\",\n        \"1 Savannah\",\n        \"1 Scalding Tarn\",\n        \"1 Sensei's Divining Top\",\n        \"1 Silence\",\n        \"1 Smothering Tithe\",\n        \"2 Snow-Covered Island\",\n        \"1 Sol Ring\",\n        \"1 Swan Song\",\n        \"1 Sylvan Library\",\n        \"1 Tainted Pact\",\n        \"1 Tarnished Citadel\",\n        \"1 Thassa's Oracle\",\n        \"1 Timetwister\",\n        \"1 Toxic Deluge\",\n        \"1 Tropical Island\",\n        \"1 Tundra\",\n        \"1 Underground Sea\",\n        \"1 Vampiric Tutor\",\n        \"1 Veil of Summer\",\n        \"1 Verdant Catacombs\",\n        \"1 Waterlogged Grove\",\n        \"1 Watery Grave\",\n        \"1 Windfall\",\n        \"1 Windswept Heath\",\n        \"1 Wooded Foothills\",\n        \"1 Yawgmoth's Will\"\n    ]\n}",
					"options": {
						"raw": {
							"language": "json"
						}
					}
				},
				"url": {
					"raw": "http://127.0.0.1:8000/",
					"protocol": "http",
					"host": [
						"127",
						"0",
						"0",
						"1"
					],
					"port": "8000",
					"path": [
						""
					]
				},
				"description": "Get all the cards form the site"
			},
			"response": []
		},
		{
			"name": "Remote_all_cards",
			"request": {
				"method": "POST",
				"header": [
					{
						"key": "Accept",
						"value": "application/json",
						"type": "text"
					},
					{
						"key": "Content-Type",
						"value": "application/json",
						"type": "text"
					}
				],
				"body": {
					"mode": "raw",
					"raw": "{\n    \"commanders\": \n    [\n        \"Tymna the Weaver\",\n        \"Thrasios, Triton Hero\"\n    ],\n    \"cards\": \n    [\n        \"1 Abrupt Decay\",\n        \"1 Ad Nauseam\",\n        \"1 Ancient Tomb\",\n        \"1 Arbor Elf\",\n        \"1 Arcane Signet\",\n        \"1 Assassin's Trophy\",\n        \"1 Avacyn's Pilgrim\",\n        \"1 Bayou\",\n        \"1 Birds of Paradise\",\n        \"1 Bloodstained Mire\",\n        \"1 Bloom Tender\",\n        \"1 Brainstorm\",\n        \"1 Breeding Pool\",\n        \"1 Carpet of Flowers\",\n        \"1 Chain of Vapor\",\n        \"1 Chrome Mox\",\n        \"1 City of Brass\",\n        \"1 Command Tower\",\n        \"1 Copy Artifact\",\n        \"1 Counterspell\",\n        \"1 Cyclonic Rift\",\n        \"1 Dark Confidant\",\n        \"1 Dark Ritual\",\n        \"1 Deathrite Shaman\",\n        \"1 Delay\",\n        \"1 Demonic Consultation\",\n        \"1 Demonic Tutor\",\n        \"1 Dispel\",\n        \"1 Dovin's Veto\",\n        \"1 Dramatic Reversal\",\n        \"1 Drown in the Loch\",\n        \"1 Elves of Deep Shadow\",\n        \"1 Enlightened Tutor\",\n        \"1 Exotic Orchard\",\n        \"1 Fellwar Stone\",\n        \"1 Flooded Strand\",\n        \"1 Flusterstorm\",\n        \"1 Forbidden Orchard\",\n        \"1 Force of Will\",\n        \"1 Gemstone Caverns\",\n        \"1 Gilded Drake\",\n        \"1 Gitaxian Probe\",\n        \"1 Grim Monolith\",\n        \"1 Imperial Seal\",\n        \"1 Isochron Scepter\",\n        \"1 Jace, Wielder of Mysteries\",\n        \"1 Lim-Dûl's Vault\",\n        \"1 Mana Confluence\",\n        \"1 Mana Crypt\",\n        \"1 Mana Drain\",\n        \"1 Mana Vault\",\n        \"1 Marsh Flats\",\n        \"1 Mental Misstep\",\n        \"1 Misty Rainforest\",\n        \"1 Morphic Pool\",\n        \"1 Mox Diamond\",\n        \"1 Mystic Remora\",\n        \"1 Mystical Tutor\",\n        \"1 Necropotence\",\n        \"1 Negate\",\n        \"1 Noble Hierarch\",\n        \"1 Notion Thief\",\n        \"1 Noxious Revival\",\n        \"1 Nurturing Peatland\",\n        \"1 Pact of Negation\",\n        \"1 Plunge into Darkness\",\n        \"1 Polluted Delta\",\n        \"1 Ponder\",\n        \"1 Preordain\",\n        \"1 Priest of Titania\",\n        \"1 Rhystic Study\",\n        \"1 Savannah\",\n        \"1 Scalding Tarn\",\n        \"1 Sensei's Divining Top\",\n        \"1 Silence\",\n        \"1 Smothering Tithe\",\n        \"2 Snow-Covered Island\",\n        \"1 Sol Ring\",\n        \"1 Swan Song\",\n        \"1 Sylvan Library\",\n        \"1 Tainted Pact\",\n        \"1 Tarnished Citadel\",\n        \"1 Thassa's Oracle\",\n        \"1 Timetwister\",\n        \"1 Toxic Deluge\",\n        \"1 Tropical Island\",\n        \"1 Tundra\",\n        \"1 Underground Sea\",\n        \"1 Vampiric Tutor\",\n        \"1 Veil of Summer\",\n        \"1 Verdant Catacombs\",\n        \"1 Waterlogged Grove\",\n        \"1 Watery Grave\",\n        \"1 Windfall\",\n        \"1 Windswept Heath\",\n        \"1 Wooded Foothills\",\n        \"1 Yawgmoth's Will\"\n    ]\n}",
					"options": {
						"raw": {
							"language": "json"
						}
					}
				},
				"url": {
					"raw": "http://cmdrdeckrank.rpsands.com",
					"protocol": "http",
					"host": [
						"cmdrdeckrank",
						"rpsands",
						"com"
					]
				},
				"description": "Test json for posting and seeing if we get a json score back"
			},
			"response": []
		}
	],
	"protocolProfileBehavior": {}
}